This is BibTeX, Version 0.99c (Web2C 7.5.7)
The top-level auxiliary file: article.aux
The style file: unsrtnat.bst
Database file #1: database.bib
Warning--entry type for "hetscode" isn't style-file defined
--line 188 of file database.bib
Warning--empty publisher in hybridization
Warning--empty journal in whatislogic
Warning--empty publisher in generalogics
Warning--empty publisher in institutionmorphisms
Warning--empty year in institutionmorphisms
Warning--empty year in institutionmorphisms
Warning--empty journal in sefm
Warning--empty journal in mvhl
Warning--empty journal in modalsummary
Warning--empty year in modalnotes
Warning--empty booktitle in modalities
Warning--empty publisher in jmelo1
Warning--empty year in hetscode
You've used 28 entries,
            2481 wiz_defined-function locations,
            683 strings with 7166 characters,
and the built_in function-call counts, 8049 in all, are:
= -- 646
> -- 320
< -- 24
+ -- 146
- -- 90
* -- 455
:= -- 1313
add.period$ -- 97
call.type$ -- 28
change.case$ -- 36
chr.to.int$ -- 28
cite$ -- 42
duplicate$ -- 522
empty$ -- 834
format.name$ -- 131
if$ -- 1725
int.to.chr$ -- 1
int.to.str$ -- 29
missing$ -- 44
newline$ -- 155
num.names$ -- 82
pop$ -- 314
preamble$ -- 1
purify$ -- 28
quote$ -- 0
skip$ -- 283
stack$ -- 0
substring$ -- 57
swap$ -- 58
text.length$ -- 1
text.prefix$ -- 0
top$ -- 0
type$ -- 139
warning$ -- 13
while$ -- 54
width$ -- 0
write$ -- 353
(There were 14 warnings)
