\relax 
\ifx\hyper@anchor\@undefined
\global \let \oldcontentsline\contentsline
\gdef \contentsline#1#2#3#4{\oldcontentsline{#1}{#2}{#3}}
\global \let \oldnewlabel\newlabel
\gdef \newlabel#1#2{\newlabelxx{#1}#2}
\gdef \newlabelxx#1#2#3#4#5#6{\oldnewlabel{#1}{{#2}{#3}}}
\AtEndDocument{\let \contentsline\oldcontentsline
\let \newlabel\oldnewlabel}
\else
\global \let \hyper@last\relax 
\fi

\citation{hybridization}
\citation{generaltheorycategory}
\citation{categoriessimple,generaltheorycategory,categories,categories1}
\citation{settheory}
\citation{modeltheory,modeltheory1,modeltheory2}
\citation{modeltheory-intro,mathstructure}
\@writefile{toc}{\contentsline {section}{\numberline {1}Introduction}{1}{section.1}}
\@writefile{toc}{\contentsline {section}{\numberline {2}Preliminars}{1}{section.2}}
\@writefile{toc}{\contentsline {subsection}{\numberline {2.1}Category Theory}{1}{subsection.2.1}}
\@writefile{loe}{\contentsline {notation}{\hbox to\@tempdima {2.1.1\hfil }Notation\space (Morphism)}{1}{notation.2.1.1}}
\newlabel{not:morphism}{{2.1.1}{1}{Category Theory\relax }{notation.2.1.1}{}}
\@writefile{loe}{\contentsline {definition}{\hbox to\@tempdima {2.1.2\hfil }Definition\space (Category)}{1}{definition.2.1.2}}
\newlabel{def:category}{{2.1.2}{1}{Category Theory\relax }{definition.2.1.2}{}}
\@writefile{loe}{\contentsline {definition}{\hbox to\@tempdima {2.1.3\hfil }Definition\space (Functor)}{1}{definition.2.1.3}}
\citation{modeltheory-intro1}
\citation{whatislogic,logicproof,institutionmodeltheory}
\citation{generalogics}
\citation{institutionmorphisms}
\citation{hybridization}
\citation{sefm,mvhl}
\citation{institutions}
\@writefile{toc}{\contentsline {subsection}{\numberline {2.2}Model Theory}{2}{subsection.2.2}}
\@writefile{loe}{\contentsline {definition}{\hbox to\@tempdima {2.2.1\hfil }Definition\space (Structure)}{2}{definition.2.2.1}}
\newlabel{def:structure}{{2.2.1}{2}{Model Theory\relax }{definition.2.2.1}{}}
\@writefile{loe}{\contentsline {definition}{\hbox to\@tempdima {2.2.2\hfil }Definition\space (Model)}{2}{definition.2.2.2}}
\@writefile{toc}{\contentsline {subsection}{\numberline {2.3}Institutions}{2}{subsection.2.3}}
\@writefile{loe}{\contentsline {definition}{\hbox to\@tempdima {2.3.1\hfil }Definition\space (Institution)}{2}{definition.2.3.1}}
\newlabel{def:institution}{{2.3.1}{2}{Institutions\relax }{definition.2.3.1}{}}
\citation{institutionmodeltheory}
\citation{caslrm}
\citation{handbooklogic}
\citation{modalhandbook,modalsummary,modalnotes,modalities}
\citation{jmelo1,caslrm}
\citation{hetscode}
\@writefile{toc}{\contentsline {section}{\numberline {3}Hybridization in HETS}{3}{section.3}}
\@writefile{toc}{\contentsline {subsection}{\numberline {3.1}Amalgamation}{3}{subsection.3.1}}
\@writefile{loe}{\contentsline {definition}{\hbox to\@tempdima {3.1.1\hfil }Definition\space (Amalgamation)}{3}{definition.3.1.1}}
\@writefile{toc}{\contentsline {subsection}{\numberline {3.2}Hybridization : HETS approach}{3}{subsection.3.2}}
\@writefile{toc}{\contentsline {subsubsection}{\numberline {3.2.1}Checking the amalgamation property}{3}{subsubsection.3.2.1}}
\citation{modeltheory2}
\bibstyle{unsrtnat}
\bibdata{database}
\bibcite{hybridization}{{1}{2011}{{Martins et~al.}}{{Martins, Madeira, Diaconescu, and Barbosa}}}
\bibcite{generaltheorycategory}{{2}{1945}{{Eilenberg and MacLane}}{{}}}
\bibcite{categoriessimple}{{3}{1998}{{Lane}}{{}}}
\bibcite{categories}{{4}{1997}{{Lawvere and Schanuel}}{{}}}
\@writefile{toc}{\contentsline {subsubsection}{\numberline {3.2.2}Generating code}{4}{subsubsection.3.2.2}}
\@writefile{toc}{\contentsline {section}{\numberline {4}Conclusion}{4}{section.4}}
\bibcite{categories1}{{5}{1991}{{Pierce}}{{}}}
\bibcite{settheory}{{6}{1978}{{Jech}}{{}}}
\bibcite{modeltheory}{{7}{1993}{{Hodges}}{{}}}
\bibcite{modeltheory1}{{8}{1999}{{Manzano}}{{}}}
\bibcite{modeltheory2}{{9}{1990}{{Chang and Keisler}}{{}}}
\bibcite{modeltheory-intro}{{10}{1997}{{Hodges}}{{}}}
\bibcite{mathstructure}{{11}{2004}{{Malik and Sen}}{{}}}
\bibcite{modeltheory-intro1}{{12}{2002}{{Marker}}{{}}}
\bibcite{whatislogic}{{13}{2000}{{Mossakowski et~al.}}{{Mossakowski, Goguen, Diaconescu, and Tarlecki}}}
\bibcite{logicproof}{{14}{2006}{{Stra{\ss }burger}}{{}}}
\bibcite{institutionmodeltheory}{{15}{2008}{{Diaconescu}}{{}}}
\bibcite{generalogics}{{16}{FALTA}{{Meseguer}}{{}}}
\bibcite{institutionmorphisms}{{17}{}{{Goguen and Rosu}}{{}}}
\bibcite{sefm}{{18}{2011}{{Madeira et~al.}}{{Madeira, Faria, Martins, and Barbosa}}}
\bibcite{mvhl}{{19}{2008}{{Jens~Hansen and Brauner}}{{}}}
\bibcite{institutions}{{20}{1992}{{Goguen and Burstall}}{{}}}
\bibcite{caslrm}{{21}{2004}{{Mosses}}{{}}}
\bibcite{handbooklogic}{{22}{1989}{{Barwise}}{{}}}
\bibcite{modalhandbook}{{23}{2007}{{Blackburn et~al.}}{{Blackburn, van Benthem, and Wolter}}}
\bibcite{modalsummary}{{24}{1989}{{Fitting}}{{}}}
\bibcite{modalnotes}{{25}{}{{Zalta}}{{}}}
\bibcite{modalities}{{26}{2003}{{Alechina}}{{}}}
\bibcite{jmelo1}{{27}{2012}{{Melo}}{{}}}
\bibcite{hetscode}{{28}{}{{het}}{{}}}
