\relax 
\FN@pp@footnotehinttrue 
\citation{generaltheorycategory}
\citation{categoriessimple,generaltheorycategory,categories,categories1}
\citation{settheory}
\@writefile{toc}{\contentsline {chapter}{\numberline {4}Preliminars}{7}{chapter.4}}
\@writefile{lof}{\addvspace {10\p@ }}
\@writefile{lot}{\addvspace {10\p@ }}
\@writefile{toc}{\contentsline {section}{\numberline {4.1}Category Theory}{7}{section.4.1}}
\@writefile{brf}{\backcite{generaltheorycategory}{{7}{4.1}{section.4.1}}}
\@writefile{brf}{\backcite{generaltheorycategory}{{7}{4.1}{section.4.1}}}
\@writefile{brf}{\backcite{categoriessimple}{{7}{4.1}{section.4.1}}}
\@writefile{brf}{\backcite{categories}{{7}{4.1}{section.4.1}}}
\@writefile{brf}{\backcite{categories1}{{7}{4.1}{section.4.1}}}
\@writefile{loe}{\addvspace {10\p@ }}
\@writefile{loe}{\contentsline {notation}{\hbox to\@tempdima {4.1.1\hfil }Notation\space (Morphism)}{7}{notation.4.1.1}}
\newlabel{not:morphism}{{4.1.1}{7}{Category Theory\relax }{notation.4.1.1}{}}
\@writefile{brf}{\backcite{settheory}{{7}{4.1}{notation.4.1.1}}}
\@writefile{loe}{\addvspace {10\p@ }}
\@writefile{loe}{\contentsline {definition}{\hbox to\@tempdima {4.1.2\hfil }Definition\space (Category)}{7}{definition.4.1.2}}
\newlabel{def:category}{{4.1.2}{7}{Category Theory\relax }{definition.4.1.2}{}}
\citation{modeltheory,modeltheory1,modeltheory2}
\citation{modeltheory-intro,mathstructure}
\citation{modeltheory-intro1}
\@writefile{loe}{\addvspace {10\p@ }}
\@writefile{loe}{\contentsline {definition}{\hbox to\@tempdima {4.1.3\hfil }Definition\space (Functor)}{8}{definition.4.1.3}}
\@writefile{toc}{\contentsline {section}{\numberline {4.2}Model Theory}{8}{section.4.2}}
\@writefile{brf}{\backcite{modeltheory}{{8}{4.2}{section.4.2}}}
\@writefile{brf}{\backcite{modeltheory1}{{8}{4.2}{section.4.2}}}
\@writefile{brf}{\backcite{modeltheory2}{{8}{4.2}{section.4.2}}}
\@writefile{brf}{\backcite{modeltheory-intro}{{8}{4.2}{section.4.2}}}
\@writefile{brf}{\backcite{mathstructure}{{8}{4.2}{section.4.2}}}
\@writefile{loe}{\addvspace {10\p@ }}
\@writefile{loe}{\contentsline {definition}{\hbox to\@tempdima {4.2.1\hfil }Definition\space (Structure)}{8}{definition.4.2.1}}
\@writefile{brf}{\backcite{modeltheory-intro1}{{8}{4.2.1}{definition.4.2.1}}}
\citation{whatislogic,logicproof,institutionmodeltheory}
\citation{generalogics}
\@writefile{loe}{\addvspace {10\p@ }}
\@writefile{loe}{\contentsline {definition}{\hbox to\@tempdima {4.2.2\hfil }Definition\space (Model)}{9}{definition.4.2.2}}
\@writefile{toc}{\contentsline {section}{\numberline {4.3}Institutions}{9}{section.4.3}}
\@writefile{brf}{\backcite{whatislogic}{{9}{4.3}{section.4.3}}}
\@writefile{brf}{\backcite{logicproof}{{9}{4.3}{section.4.3}}}
\@writefile{brf}{\backcite{institutionmodeltheory}{{9}{4.3}{section.4.3}}}
\@writefile{loe}{\addvspace {10\p@ }}
\@writefile{loe}{\contentsline {definition}{\hbox to\@tempdima {4.3.1\hfil }Definition\space (Institution)}{9}{definition.4.3.1}}
\newlabel{def:institution}{{4.3.1}{9}{Institutions\relax }{definition.4.3.1}{}}
\@writefile{brf}{\backcite{generalogics}{{9}{4.3.1}{definition.4.3.1}}}
\FN@pp@footnotehinttrue 
\@setckpt{4/preliminares}{
\setcounter{page}{10}
\setcounter{equation}{0}
\setcounter{enumi}{0}
\setcounter{enumii}{0}
\setcounter{enumiii}{0}
\setcounter{enumiv}{0}
\setcounter{footnote}{0}
\setcounter{mpfootnote}{0}
\setcounter{part}{0}
\setcounter{chapter}{4}
\setcounter{section}{3}
\setcounter{subsection}{0}
\setcounter{subsubsection}{0}
\setcounter{paragraph}{0}
\setcounter{subparagraph}{0}
\setcounter{figure}{0}
\setcounter{table}{0}
\setcounter{parentequation}{0}
\setcounter{float@type}{8}
\setcounter{lstnumber}{1}
\setcounter{ContinuedFloat}{0}
\setcounter{pp@next@reset}{1}
\setcounter{@fnserial}{0}
\setcounter{NAT@ctr}{0}
\setcounter{thmt@dummyctr}{6}
\setcounter{Item}{0}
\setcounter{Hfootnote}{0}
\setcounter{definition}{1}
\setcounter{lstlisting}{0}
\setcounter{section@level}{1}
}
