\relax 
\citation{constructing,formalverification,softwareabs}
\citation{caslrm}
\citation{habil,hetspaper,hetspaper1,theory,foundationsmathlogic}
\citation{institutions,institutions1}
\citation{caslrm,hetspaper,habil,hetspaper1}
\citation{habil,usermanual,caslrm,hetspaper1,hetspaper}
\citation{modalhandbook}
\citation{haskell}
\citation{caslrm}
\citation{categories,categories1}
\@writefile{toc}{\contentsline {section}{\numberline {1}Introduction}{1}}
\@writefile{toc}{\contentsline {paragraph}{Why extend CASL?}{1}}
\citation{whatislogic,logicproof,institutionmodeltheory}
\citation{foundationsmathlogic,haskell}
\citation{habil,whatislogic}
\@writefile{toc}{\contentsline {section}{\numberline {2}Institutions}{2}}
\@writefile{toc}{\contentsline {paragraph}{Signatures}{2}}
\@writefile{toc}{\contentsline {paragraph}{Sentences}{2}}
\@writefile{toc}{\contentsline {paragraph}{Model}{2}}
\citation{caslrm}
\citation{usermanual}
\@writefile{toc}{\contentsline {section}{\numberline {3}CASL Implementation Overview}{3}}
\@writefile{toc}{\contentsline {subsection}{\numberline {3.1}Signatures}{3}}
\@writefile{toc}{\contentsline {paragraph}{Note}{3}}
\citation{caslrm}
\citation{caslrm}
\@writefile{toc}{\contentsline {subsection}{\numberline {3.2}Sentences}{4}}
\citation{caslrm}
\citation{instmorph,differentarrows}
\citation{habil}
\@writefile{toc}{\contentsline {subsection}{\numberline {3.3}Models}{5}}
\@writefile{toc}{\contentsline {section}{\numberline {4}Extending CASL}{5}}
\citation{modalhandbook}
\@writefile{toc}{\contentsline {paragraph}{Why extending CASL by Comorphisms?}{6}}
\@writefile{toc}{\contentsline {subsection}{\numberline {4.1}Theoretical in Practice}{6}}
\@writefile{toc}{\contentsline {subsubsection}{\numberline {4.1.1}Functor $\Phi ^{\textnormal  {\textbf  {C2L}}}$}{6}}
\@writefile{toc}{\contentsline {subsubsection}{\numberline {4.1.2}Transformation $\alpha ^{\textnormal  {\textbf  {C2L}}}$}{6}}
\citation{habil,developmentgraphs}
\@writefile{toc}{\contentsline {subsubsection}{\numberline {4.1.3}Transformation $\beta ^{\textnormal  {\textbf  {C2L}}}$}{7}}
\@writefile{toc}{\contentsline {subsection}{\numberline {4.2}HETS internals}{7}}
\@writefile{lof}{\contentsline {figure}{\numberline {1}{\ignorespaces HETS internal workflow}}{8}}
\newlabel{fig:workflow}{{1}{8}}
\citation{caslrm,usermanual}
\@writefile{toc}{\contentsline {subsection}{\numberline {4.3}Implementation Overview}{9}}
\citation{whatislogic}
\citation{habil}
\citation{caslrm}
\citation{caslrm}
\@writefile{toc}{\contentsline {subsubsection}{\numberline {4.3.1}Logic Type Parameters}{10}}
\@writefile{toc}{\contentsline {paragraph}{lid}{10}}
\@writefile{toc}{\contentsline {paragraph}{sublogics}{10}}
\@writefile{toc}{\contentsline {paragraph}{basic\_spec}{10}}
\citation{caslrm}
\@writefile{toc}{\contentsline {paragraph}{sentence}{11}}
\@writefile{toc}{\contentsline {paragraph}{symb\_items \& symb\_map\_items}{11}}
\@writefile{toc}{\contentsline {paragraph}{sign}{12}}
\@writefile{toc}{\contentsline {paragraph}{morphism}{12}}
\@writefile{toc}{\contentsline {paragraph}{symbol \& raw\_symbol}{12}}
\citation{habil}
\citation{caslrm}
\citation{caslrm}
\citation{staticanalysis,caslrm,habil}
\@writefile{toc}{\contentsline {paragraph}{proof\_tree}{13}}
\@writefile{toc}{\contentsline {subsubsection}{\numberline {4.3.2}Logic Class Constraints}{13}}
\@writefile{lof}{\contentsline {figure}{\numberline {2}{\ignorespaces Logic Class dependencies}}{13}}
\newlabel{fig:deps}{{2}{13}}
\citation{caslrm,habil}
\bibstyle{unsrtnat}
\bibdata{database}
\bibcite{constructing}{{1}{2005}{{Cooke}}{{}}}
\@writefile{toc}{\contentsline {subsubsection}{\numberline {4.3.3}Logic Class Functional Dependencies}{14}}
\@writefile{toc}{\contentsline {section}{\numberline {5}Conclusion}{14}}
\bibcite{formalverification}{{2}{2005}{{Perry and Foster}}{{}}}
\bibcite{softwareabs}{{3}{2011}{{Jackson}}{{}}}
\bibcite{caslrm}{{4}{2004}{{Mosses}}{{}}}
\bibcite{habil}{{5}{2005{}}{{Mossakowski}}{{}}}
\bibcite{hetspaper}{{6}{2007}{{Mossakowski et~al.}}{{Mossakowski, Maeder, and L{\"u}ttich}}}
\bibcite{hetspaper1}{{7}{2005{}}{{Mossakowski}}{{}}}
\bibcite{theory}{{8}{1977}{{Enderton}}{{}}}
\bibcite{foundationsmathlogic}{{9}{1963}{{Curry}}{{}}}
\bibcite{institutions}{{10}{1992{}}{{Goguen and Burstall}}{{}}}
\bibcite{institutions1}{{11}{1992{}}{{Goguen and Burstall}}{{}}}
\bibcite{usermanual}{{12}{2004}{{Bidoit and Mosses}}{{}}}
\bibcite{modalhandbook}{{13}{2007}{{Blackburn et~al.}}{{Blackburn, van Benthem, and Wolter}}}
\bibcite{haskell}{{14}{2008}{{O'Sullivan et~al.}}{{O'Sullivan, Goerzen, and Stewart}}}
\bibcite{categories}{{15}{1997}{{Lawvere and Schanuel}}{{}}}
\bibcite{categories1}{{16}{1991}{{Pierce}}{{}}}
\bibcite{whatislogic}{{17}{2000}{{Mossakowski et~al.}}{{Mossakowski, Goguen, Diaconescu, and Tarlecki}}}
\bibcite{logicproof}{{18}{2006}{{Stra{\ss }burger}}{{}}}
\bibcite{institutionmodeltheory}{{19}{2008}{{Diaconescu}}{{}}}
\bibcite{instmorph}{{20}{2002}{{Goguen and Rosu}}{{}}}
\bibcite{differentarrows}{{21}{1996}{{Mossakowski}}{{}}}
\bibcite{developmentgraphs}{{22}{2002}{{Autexier et~al.}}{{Autexier, Hutter, Mossakowski, and Schairer}}}
\bibcite{staticanalysis}{{23}{2002}{{Mossakowski and Klin}}{{}}}
