\relax 
\ifx\hyper@anchor\@undefined
\global \let \oldcontentsline\contentsline
\gdef \contentsline#1#2#3#4{\oldcontentsline{#1}{#2}{#3}}
\global \let \oldnewlabel\newlabel
\gdef \newlabel#1#2{\newlabelxx{#1}#2}
\gdef \newlabelxx#1#2#3#4#5#6{\oldnewlabel{#1}{{#2}{#3}}}
\AtEndDocument{\let \contentsline\oldcontentsline
\let \newlabel\oldnewlabel}
\else
\global \let \hyper@last\relax 
\fi

\citation{generaltheorycategory}
\citation{categoriessimple,generaltheorycategory,categories,categories1}
\citation{settheory}
\citation{modeltheory,modeltheory1,modeltheory2}
\citation{modeltheory-intro,mathstructure}
\@writefile{toc}{\contentsline {section}{\numberline {1}Introduction}{1}{section.1}}
\@writefile{toc}{\contentsline {section}{\numberline {2}Preliminars}{1}{section.2}}
\@writefile{toc}{\contentsline {subsection}{\numberline {2.1}Category Theory}{1}{subsection.2.1}}
\@writefile{loe}{\contentsline {notation}{\hbox to\@tempdima {2.1.1\hfil }Notation\space (Morphism)}{1}{notation.2.1.1}}
\newlabel{not:morphism}{{2.1.1}{1}{Category Theory\relax }{notation.2.1.1}{}}
\@writefile{loe}{\contentsline {definition}{\hbox to\@tempdima {2.1.2\hfil }Definition\space (Category)}{1}{definition.2.1.2}}
\newlabel{def:category}{{2.1.2}{1}{Category Theory\relax }{definition.2.1.2}{}}
\@writefile{loe}{\contentsline {definition}{\hbox to\@tempdima {2.1.3\hfil }Definition\space (Functor)}{1}{definition.2.1.3}}
\citation{modeltheory-intro1}
\citation{whatislogic,logicproof,institutionmodeltheory}
\citation{generalogics}
\bibstyle{unsrtnat}
\bibdata{database}
\bibcite{generaltheorycategory}{{1}{1945}{{Eilenberg and MacLane}}{{}}}
\@writefile{toc}{\contentsline {subsection}{\numberline {2.2}Model Theory}{2}{subsection.2.2}}
\@writefile{loe}{\contentsline {definition}{\hbox to\@tempdima {2.2.1\hfil }Definition\space (Structure)}{2}{definition.2.2.1}}
\newlabel{def:structure}{{2.2.1}{2}{Model Theory\relax }{definition.2.2.1}{}}
\@writefile{loe}{\contentsline {definition}{\hbox to\@tempdima {2.2.2\hfil }Definition\space (Model)}{2}{definition.2.2.2}}
\@writefile{toc}{\contentsline {subsection}{\numberline {2.3}Institutions}{2}{subsection.2.3}}
\@writefile{loe}{\contentsline {definition}{\hbox to\@tempdima {2.3.1\hfil }Definition\space (Institution)}{2}{definition.2.3.1}}
\newlabel{def:institution}{{2.3.1}{2}{Institutions\relax }{definition.2.3.1}{}}
\@writefile{toc}{\contentsline {section}{\numberline {3}Extendable Hybrid CASL}{2}{section.3}}
\bibcite{categoriessimple}{{2}{1998}{{Lane}}{{}}}
\bibcite{categories}{{3}{1997}{{Lawvere and Schanuel}}{{}}}
\bibcite{categories1}{{4}{1991}{{Pierce}}{{}}}
\bibcite{settheory}{{5}{1978}{{Jech}}{{}}}
\bibcite{modeltheory}{{6}{1993}{{Hodges}}{{}}}
\bibcite{modeltheory1}{{7}{1999}{{Manzano}}{{}}}
\bibcite{modeltheory2}{{8}{1990}{{Chang and Keisler}}{{}}}
\bibcite{modeltheory-intro}{{9}{1997}{{Hodges}}{{}}}
\bibcite{mathstructure}{{10}{2004}{{Malik and Sen}}{{}}}
\bibcite{modeltheory-intro1}{{11}{2002}{{Marker}}{{}}}
\bibcite{whatislogic}{{12}{2000}{{Mossakowski et~al.}}{{Mossakowski, Goguen, Diaconescu, and Tarlecki}}}
\bibcite{logicproof}{{13}{2006}{{Stra{\ss }burger}}{{}}}
\bibcite{institutionmodeltheory}{{14}{2008}{{Diaconescu}}{{}}}
\bibcite{generalogics}{{15}{FALTA}{{Meseguer}}{{}}}
