\relax 
\@writefile{toc}{\contentsline {section}{\numberline {1}Preliminaries}{1}}
\@writefile{toc}{\contentsline {section}{\numberline {2}Compiling the CASL parser}{1}}
\@writefile{toc}{\contentsline {section}{\numberline {3}Testing}{1}}
\@writefile{toc}{\contentsline {section}{\numberline {4}Source files in \texttt  {HetCATS/CASL}}{2}}
\@writefile{toc}{\contentsline {section}{\numberline {5}Remarks}{3}}
