\relax 
\citation{jmelo1}
\citation{sefm}
\citation{jmelo1}
\citation{jmelo1}
\citation{sefm}
\citation{example}
\citation{sefm}
\citation{caslrm}
\@writefile{toc}{\contentsline {section}{\numberline {1}Introduction}{1}}
\@writefile{toc}{\contentsline {section}{\numberline {2}Overview \& Design}{1}}
\@writefile{lof}{\contentsline {figure}{\numberline {1}{\ignorespaces HybridCASL packages overview}}{2}}
\newlabel{fig:packages}{{1}{2}}
\citation{jmelo1}
\citation{caslrm,jmelo1}
\citation{jmelo1}
\@writefile{toc}{\contentsline {paragraph}{HybridCASL}{3}}
\@writefile{toc}{\contentsline {paragraph}{Logic}{3}}
\@writefile{toc}{\contentsline {paragraph}{Comorphism.To}{3}}
\@writefile{toc}{\contentsline {paragraph}{Comorphism.From}{3}}
\@writefile{toc}{\contentsline {section}{\numberline {3}Instantiating Logic Class}{3}}
\@writefile{lof}{\contentsline {figure}{\numberline {2}{\ignorespaces HETS internal workflow}}{3}}
\newlabel{fig:workflow}{{2}{3}}
\citation{jmelo1,caslrm}
\citation{parsec}
\citation{hetscode}
\@writefile{toc}{\contentsline {subsection}{\numberline {3.1}Abstract Syntax}{4}}
\@writefile{toc}{\contentsline {subsection}{\numberline {3.2}Parser}{4}}
\@writefile{toc}{\contentsline {subsection}{\numberline {3.3}Signatures and Morphisms}{5}}
\citation{caslrm}
\@writefile{toc}{\contentsline {subsection}{\numberline {3.4}Static Analysis}{6}}
\citation{jmelo1}
\citation{jmelo1}
\citation{jmelo1}
\citation{introhaskell}
\@writefile{toc}{\contentsline {subsection}{\numberline {3.5}Logic Class}{8}}
\@writefile{lof}{\contentsline {figure}{\numberline {3}{\ignorespaces Logic Class constraints}}{8}}
\newlabel{fig:dependencies}{{3}{8}}
\@writefile{toc}{\contentsline {paragraph}{lid}{8}}
\@writefile{toc}{\contentsline {paragraph}{sublogics}{8}}
\citation{caslrm}
\@writefile{toc}{\contentsline {paragraph}{basic\_spec}{9}}
\@writefile{toc}{\contentsline {paragraph}{sentence}{9}}
\@writefile{toc}{\contentsline {paragraph}{symb\_items}{9}}
\@writefile{toc}{\contentsline {paragraph}{symb\_map\_items}{9}}
\@writefile{toc}{\contentsline {paragraph}{sign}{9}}
\@writefile{toc}{\contentsline {paragraph}{morphism}{9}}
\@writefile{toc}{\contentsline {paragraph}{symbol \& raw\_symbol}{9}}
\@writefile{toc}{\contentsline {paragraph}{proof\_tree}{9}}
\citation{jmelo1,caslrm}
\@writefile{lof}{\contentsline {figure}{\numberline {4}{\ignorespaces Simplified Logic Class constraints}}{10}}
\newlabel{fig:deps}{{4}{10}}
\@writefile{toc}{\contentsline {subsubsection}{\numberline {3.5.1}Eq, Ord, Show Classes}{10}}
\@writefile{toc}{\contentsline {subsubsection}{\numberline {3.5.2}Language Class}{10}}
\citation{drift}
\citation{drift}
\citation{hetscode}
\@writefile{toc}{\contentsline {subsubsection}{\numberline {3.5.3}GetRange Class}{11}}
\@writefile{toc}{\contentsline {subsubsection}{\numberline {3.5.4}Typeable and ShATermConvertible Classes}{11}}
\citation{caslrm,aterm,aterms}
\citation{hetscode}
\@writefile{toc}{\contentsline {subsubsection}{\numberline {3.5.5}Convertible, PrintTypeConv and EqPrintTypeConv Classes}{12}}
\@writefile{toc}{\contentsline {subsubsection}{\numberline {3.5.6}Pretty Class}{12}}
\@writefile{toc}{\contentsline {subsubsection}{\numberline {3.5.7}Category Class}{12}}
\citation{jmelo1,caslrm}
\citation{hetscode}
\@writefile{toc}{\contentsline {subsubsection}{\numberline {3.5.8}Syntax Class}{14}}
\citation{jmelo1,caslrm,hetspaper1,hetspaper}
\citation{hetscode}
\@writefile{toc}{\contentsline {subsubsection}{\numberline {3.5.9}Sentences Class}{15}}
\@writefile{toc}{\contentsline {subsubsection}{\numberline {3.5.10}StaticAnalysis Class}{15}}
\citation{hetscode}
\@writefile{toc}{\contentsline {subsubsection}{\numberline {3.5.11}Logic Class instantiation}{17}}
\@writefile{toc}{\contentsline {subsubsection}{\numberline {3.5.12}Integration within HETS source}{18}}
\@writefile{toc}{\contentsline {section}{\numberline {4}Comorphism (HybridCASL $\rightarrow $ CASL)}{18}}
\citation{foundationsmathlogic,maththeory1}
\citation{caslrm}
\bibstyle{unsrtnat}
\bibdata{database}
\bibcite{jmelo1}{{1}{2012}{{Melo}}{{}}}
\bibcite{sefm}{{2}{2011}{{Madeira et~al.}}{{Madeira, Faria, Martins, and Barbosa}}}
\bibcite{example}{{3}{1997}{{Heitmeyer et~al.}}{{Heitmeyer, Kirby, and Labaw}}}
\bibcite{caslrm}{{4}{2004}{{Mosses}}{{}}}
\@writefile{lof}{\contentsline {figure}{\numberline {5}{\ignorespaces Model Transformation}}{19}}
\newlabel{fig:model}{{5}{19}}
\@writefile{toc}{\contentsline {section}{\numberline {5}Conclusion}{19}}
\bibcite{parsec}{{5}{2001}{{Leijen}}{{}}}
\bibcite{hetscode}{{6}{}{{het}}{{}}}
\bibcite{introhaskell}{{7}{1999}{{Hudak et~al.}}{{Hudak, Peterson, and Fasel}}}
\bibcite{drift}{{8}{2008}{{Winstanley and Meacham}}{{}}}
\bibcite{aterm}{{9}{2000}{{de~Jong and Olivier}}{{}}}
\bibcite{aterms}{{10}{2000}{{van~den Brand et~al.}}{{van~den Brand, de~Jong, Klint, and Olivier}}}
\bibcite{hetspaper1}{{11}{2005}{{Mossakowski}}{{}}}
\bibcite{hetspaper}{{12}{2007}{{Mossakowski et~al.}}{{Mossakowski, Maeder, and L{\"u}ttich}}}
\bibcite{foundationsmathlogic}{{13}{1963}{{Curry}}{{}}}
\bibcite{maththeory1}{{14}{2007}{{Bledin}}{{}}}
